[
  {
    "name": "java.lang.UnsatisfiedLinkError",
    "methods": [
      {
        "name": "<init>",
        "parameterTypes": [
          "java.lang.String"
        ]
      }
    ]
  },
  {
    "name": "com.kenai.jffi.Foreign",
    "allDeclaredConstructors": true,
    "allPublicConstructors": true,
    "allDeclaredMethods": true,
    "allPublicMethods": true
  }
]
